{
    "version": 1,
    "wallpaper": {
        "future": false,
        "preview": "16.jpg",
        "source": "https://storage.ape.yandex.net/get/TableauBackgrounds/c226607f5700c22e58ea306c9ba93608.jpg",
        "video": false
    }
}