{
  "version": 1,
  "wallpaper": {
    "future": false,
    "preview": "15.jpg",
    "source": "https://storage.ape.yandex.net/get/TableauBackgrounds/df2c82e89001b5efe6c242c2e48b0125.jpg",
    "video": false,
    "avg_color": "light"
  }
}
