{
  "version": 1,
  "wallpaper": {
    "future": false,
    "preview": "18.jpg",
    "source": "https://storage.ape.yandex.net/get/TableauBackgrounds/dd1d93bc7c4f1dd3691e713f90185bee.jpg",
    "video": false,
    "avg_color": "light"
  }
}
