{
    "version": 1,
    "wallpaper": {
        "future": false,
        "preview": "stones.jpg",
        "source": "https://storage.ape.yandex.net/get/TableauBackgrounds/82120272cf57bb3c90afd78f0917fb6f.jpg",
        "video": false
    }
}